{
    "name":"EnsemblVEP",
    "Parameters":{
        "default":{
            "Command": "/usr/bin/python /home/jmrosa/git/python_projects/scripts/annotation/ensemblVEP.py",
            "Options":{
                "Input":"-v _inputfile_",
                "Samples":"-s _samplesfile_",
                "Canonics":"-c _canonicsfile_",
                "FalsePostives":"-k _falposfile_",
                "Multithread":"-t 6"
            },
            "Output":"-o _outputfile_",
            "Output_format":"txt",
            "Log":"> _log_ 2> _error_"
       }
    }
}
