{
    "name":"IndelRealigner",
    "Samples":"yes",
    "Threads":"4",
    "TmpOutput":"yes",
    "Parameters":{
        "default":{
            "Command": "java -Djava.io.tmpdir=/temporal/tmp -jar /share/tools/GenomeAnalysisTK-2.8-1-g932cd3a/GenomeAnalysisTK.jar -T IndelRealigner -allowPotentiallyMisencodedQuals -filterRNC -filterMBQ -filterNoBases",
            "Options":{
                "Fasta":"-R _fasta_",
                "Input":"-I _inputfile_",
                "Intervals":"-L _intervals_",
                "IndelTargets":"-targetIntervals _aux_"
            },
            "Output":"-o _outputfile_",
            "Output_format":"bam",
            "Log":"> _log_ 2> _error_"
       }
    }
}
