{
    "name":"Novoalign_Ion",
    "Samples":"yes",
    "Threads":"14",
    "TmpOutput":"yes",
    "Parameters":{
        "default":{
            "Command": "novoalign",
            "Options":{
                "Fasta":"-d _novoindex_",
                "Input":"-f _inputfile_",
                "Format":"-F STDFQ",
                "Reporting":"-r All 5 -g 20 -x 5",
                "Output_type":"-o SAM"
            },
            "Output":"> _outputfile_",
            "Output_format":"sam",
            "Log":"2> _log_"
       }
    }
}
