{
    "name":"Novoalign",
    "Samples":"yes",
    "Threads":"4",
    "TmpOutput":"yes",
    "Parameters":{
        "default":{
            "Command": "novoalign",
            "Options":{
                "Fasta":"-d _novoindex_",
                "Input":"-f _input_R1_ _input_R2_",
                "Format":"-F STDFQ",
                "Reporting":"-r All 5",
                "Output_type":"-o SAM"
            },
            "Output":"> _outputfile_",
            "Output_format":"sam",
            "Log":"2> _log_"
       }
    }
}
