{
	"name":"Tmap Reseq Pipeline",
    "genomes":{
        "hg19":{
            "species":"human",
            "fasta":"/data_store/Data1/jmrosa/Documents/genomes/hg19/hg19.chrM_fixed.fasta"
        }
    },
	"capture_techs":{
		"Haloplex": {
            "Panel_Research_Cancer":{
                "files":{
                    "covered":"/home/jmrosa/Documents/Projects/Haloplex/Panel_Research_Cancer/Agilent_files/00100-1358503561_Covered.bed",
                    "regions":"/home/jmrosa/Documents/Projects/Haloplex/Panel_Research_Cancer/Agilent_files/00100-1358503561_Regions.bed"
                },
                "analysis":{
                    "1":{
                        "name":"alignment",
                        "steps":"1,2"
                    },
                   "2":{
                        "name":"processing",
                        "steps":"1,2,3,4,5"
                    },
                   "3":{
                        "name":"variant_calling",
                        "steps":"1,2,3,4"
                    },
                   "4":{
                        "name":"annotation",
                        "steps":"1,2"
                    }
                }
            }
		},
		"Ampliseq": {
            "Exome":{
                "files":{
                    "covered":"/data_store/Data1/jmrosa/Documents/Projects/Exomes/Nimgenetics/AmpliSeqExome.20131001.designed.bed",
                    "regions":"/data_store/Data1/jmrosa/Documents/Projects/Exomes/Nimgenetics/AmpliSeqExome.20131001.designed.bed"
                },
                "analysis":{
                    "1":{
                        "name":"alignment",
                        "steps":"1,2"
                    },
                   "2":{
                        "name":"processing",
                        "steps":"1,2,3,4,5"
                    },
                   "3":{
                        "name":"variant_calling",
                        "steps":"1,2,3,4"
                    },
                   "4":{
                        "name":"annotation",
                        "steps":"1,2"
                    }
                }
            }
		}
	},
    "Phases": {
        "alignment":{
            "previous":"None",
            "next":"processing",
              "Steps":{
                "1":{
                   "Samples":"yes",
                   "Threads":"4",
                   "TmpOutput":"yes",
                   "Parameters":{
                        "default":{
                            "Command": "tmap mapall",
                            "Options":{
                                "Fasta":"-f _fasta_",
                                "Input":"-r _inputfile_",
                                "Input_format":"-i _format_",
                                "Soft_clipping":"-g 0",
                                "Threads":"-n 3",
                                "Output_mode":"-a 2",
                                "Output_type":"-o 1"
                            },
                            "Output":"-s _outputfile_",
                            "Output_format":"bam",
                            "Special":"stage1 map1 map2 map3 map4",
                            "Log":"> _log_ 2> _error_"
                       }
                    }
                },
                "2":{
                    "Samples":"yes",
                    "Threads":"4",
                    "Parameters":{
                        "default":{
<<<<<<< HEAD
                            "Command": "java -jar /share/tools/picard-tools-1.105/AddOrReplaceReadGroups.jar",
=======
                            "Command": "java -jar /share/tools/picard-tools-1.122/AddOrReplaceReadGroups.jar",
>>>>>>> 093653197cb0a46a2ebaaae7f822031996a1fb23
                            "Options":{
                                "Input":"I=_inputfile_",
                                "Sorting":"SO=coordinate CREATE_INDEX=true",
                                "ID":"ID=_name_",
                                "Library":"LB=_ID___capture_",
                                "Platform":"PL=_platform_",
                                "Barcode":"PU=_ID_",
                                "TMP":"TMP_DIR=/temporal/tmp",
                                "Sample name":"SM=_name_"
                            },
                            "Output":"O=_outputfile_",
                            "Output_format":"bam",
                            "Log":"> _log_ 2> _error_"
                       }
                    }
                }
            }
       },
        "processing":{
            "previous":"alignment",
            "next": "variant_calling",
               "Steps":{
                "1":{
                    "Samples":"yes",
                    "Threads":"4",
                    "TmpOutput":"yes",
                    "AuxFile":"yes",
                    "Parameters":{
                        "default":{
<<<<<<< HEAD
                            "Command": "java -jar /share/tools/GenomeAnalysisTK-2.8-1-g932cd3a/GenomeAnalysisTK.jar -T RealignerTargetCreator -allowPotentiallyMisencodedQuals ",
=======
                            "Command": "java -jar /share/tools/GenomeAnalysisTK-3.3-0/GenomeAnalysisTK.jar -T RealignerTargetCreator -allowPotentiallyMisencodedQuals ",
>>>>>>> 093653197cb0a46a2ebaaae7f822031996a1fb23
                            "Options":{
                                "Fasta":"-R _fasta_",
                                "Input":"-I _inputfile_",
                                "Intervals":"-L _intervals_",
                                "Threads":"-nt 2"
                            },
                            "Output":"-o _outputfile_",
                            "Output_format":"intervals",
                            "Log":"> _log_ 2> _error_"
                       }
                    }
                 },
                "2":{
                    "Samples":"yes",
                    "Threads":"4",
                    "TmpOutput":"yes",
                    "Parameters":{
                        "default":{
<<<<<<< HEAD
                            "Command": "java -jar /share/tools/GenomeAnalysisTK-2.8-1-g932cd3a/GenomeAnalysisTK.jar -T IndelRealigner -allowPotentiallyMisencodedQuals -filterRNC -filterMBQ -filterNoBases",
=======
                            "Command": "java -jar /share/tools/GenomeAnalysisTK-3.3-0/GenomeAnalysisTK.jar -T IndelRealigner -allowPotentiallyMisencodedQuals -filterRNC -filterMBQ -filterNoBases",
>>>>>>> 093653197cb0a46a2ebaaae7f822031996a1fb23
                            "Options":{
                                "Fasta":"-R _fasta_",
                                "Input":"-I _inputfile_",
                                "Intervals":"-L _intervals_",
                                "IndelTargets":"-targetIntervals _aux_"
                            },
                            "Output":"-o _outputfile_",
                            "Output_format":"bam",
                            "Log":"> _log_ 2> _error_"
                       }
                    }
                },
                "3":{
                    "Samples":"yes",
                    "Threads":"4",
                    "Parameters":{
                        "default":{
<<<<<<< HEAD
                            "Command": "java -jar /share/tools/GenomeAnalysisTK-2.8-1-g932cd3a/GenomeAnalysisTK.jar -T LeftAlignIndels -allowPotentiallyMisencodedQuals -filterRNC -filterMBQ -filterNoBases",
=======
                            "Command": "java -jar /share/tools/GenomeAnalysisTK-3.3-0/GenomeAnalysisTK.jar -T LeftAlignIndels -allowPotentiallyMisencodedQuals -filterRNC -filterMBQ -filterNoBases",
>>>>>>> 093653197cb0a46a2ebaaae7f822031996a1fb23
                            "Options":{
                                "Fasta":"-R _fasta_",
                                "Input":"-I _inputfile_",
                                "Intervals":"-L _intervals_"
                            },
                            "Output":"-o _outputfile_",
                            "Output_format":"bam",
                            "Log":"> _log_ 2> _error_"
                       }
                    }
                },
                "4":{
                   "Merge":"yes",
                   "TmpOutput":"yes",
                   "Parameters":{
                        "default":{
<<<<<<< HEAD
                            "Command": "java -jar /share/tools/picard-tools-1.105/MergeSamFiles.jar",
=======
                            "Command": "java -jar /share/tools/picard-tools-1.122/MergeSamFiles.jar",
>>>>>>> 093653197cb0a46a2ebaaae7f822031996a1fb23
                            "Options":{
                                "Input":"I=_inputfile_",
                                "TMP":"TMP_DIR=/temporal/tmp",
                                "Sorting":"SO=coordinate CREATE_INDEX=true AS=false"
                            },
                            "Output":"O=_outputfile_",
                            "Output_format":"bam",
                            "Log":"> _log_ 2> _error_"
                       }
                    }
               },
                "5":{
                    "Parameters":{
                        "default":{
                            "Command": "samtools view -hb",
                            "Options":{
                                "Input":"_inputfile_",
                                "Quality":"-q 1"
                            },
                            "Output":"-o _outputfile_",
                            "Output_format":"bam",
                            "Special":"&& samtools index _outputfile_",
                            "Log":"> _log_ 2> _error_"
                       }
                    }
                }
            }
       },
        "variant_calling":{
            "previous":"processing",
            "next":"annotation",
               "Steps":{
                "1":{
                    "Samples":"yes",
                    "Threads":"4",
                    "TmpOutput":"yes",
                    "Resample":"yes",
                    "Parameters":{
                        "default":{
                            "Command": "samtools view -bh -r _name_",
                            "Options":{
                                "Input":"_inputfile_"
                            },
                            "Special":"&& samtools index _outputfile_",
                            "Output":"-o _outputfile_",
                            "Output_format":"bam",
                            "Log":"> _log_ 2> _error_"
                       }
                    }
                },
                "2":{
                    "TmpOutput":"yes",
                    "Merge":"yes",
                    "Parameters":{
                        "default":{
                            "Command": "samtools mpileup -f _fasta_",
                            "Options":{
                                "Input":"_inputfile_",
                                "Anomalous":"-A",
                                "PerSampleDepth":"-D",
                                "PerSampleSB":"-S",
                                "Regions":"-l _regions_",
                                "Sensitivity":"-p",
                                "MaxDepth":"-d 10000",
                                "Thresholds":"-m 1 -F 0.001"
                            },
                            "Output":"> _outputfile_",
                            "Output_format":"pileup",
                            "Log":"2> _error_"
                       }
                    }
                },
                "3":{
                    "TmpOutput":"yes",
                    "Parameters":{
                        "default":{
<<<<<<< HEAD
                            "Command": "java -jar /share/tools/VarScan.v2.3.6/VarScan.v2.3.6.jar mpileup2cns _inputfile_",
=======
                            "Command": "java -jar /share/tools/VarScan.v2.3.7/VarScan.v2.3.7.jar mpileup2cns _inputfile_",
>>>>>>> 093653197cb0a46a2ebaaae7f822031996a1fb23
                            "Options":{
                                "Coverage":"--min-coverage 3",
                                "VarFreq":"--min-var-freq 0.01",
                                "HomoVarFreq":"--min-freq-for-hom 0.85",
                                "PvalueThreshold":"--p-value 0.99",
                                "StrandFilter":"--strand-filter 0",
                                "Report":"--variants",
                                "OutputFormat":"--output-vcf 1",
                                "Samples":"--vcf-sample-list _aux_"
                            },
                            "Output":"> _outputfile_",
                            "Output_format":"vcf",
                            "Log":"2> _error_"
                       }
                    }
                },
                "4":{
                    "TmpOutput":"yes",
                    "Parameters":{
                        "default":{
                            "Command": "/usr/bin/python /home/jmrosa/Documents/python_projects/scripts/variant_calling/split_vcf.py",
                            "Options":{
                                "VCF":"-v _inputfile_"
                            },
                            "Output":"-o _outputfile_",
                            "Output_format":"vcf",
                            "Log":"> _log_ 2> _error_"
                       }
                    }
                }
            }
        },
        "annotation":{
            "previous":"variant_calling",
            "next":"None",
               "Steps":{
                "1":{
                    "TmpOutput":"yes",
                    "Parameters":{
                        "default":{
                            "Command": "perl /share/tools/variant_effect_predictor/variant_effect_predictor.pl",
                            "Options":{
                                "Input":"-i _inputfile_",
                                "Cache":"--cache",
                                "Multithread":"",
                                "Columns":"--everything",
                                "OutputFormat":"--vcf",
                                "ForceOutput":"--force_overwrite"
                            },
                            "Output":"-o _outputfile_",
                            "Output_format":"vcf",
                            "Log":"> _log_ 2> _error_"
                       }
                    }
                },
                "2":{
                    "Parameters":{
                        "default":{
                            "Command": "/usr/bin/python /home/jmrosa/git/python_projects/scripts/annotation/merging_var_anno.py",
                            "Options":{
                                "VCF":"-v _inputfile_"
                            },
                            "Output":"-o _outputfile_",
                            "Output_format":"txt",
                            "Log":"> _log_ 2> _error_"
                       }
                    }
                }
            }
        }
    }
}
