{
    "name":"EnsemblVEP",
    "Parameters":{
        "default":{
            "Command": "/usr/bin/python /input/jmrosa/git/python_projects/scripts/annotation/ensemblVEP_h12o.py",
            "Options":{
                "Input":"-i _inputfile_",
                "Samples":"-s _samplesfile_",
                "Canonics":"-c _canonicsfile_",
                "FalsePostives":"-k _falposfile_",
                "Pathogenic":"-p _patfile_",
                "Version":"-v _version_",
                "Multithread":"-t 4"
             },
            "Output":"-o _outputfile_",
            "Output_format":"txt",
            "Log":"> _log_ 2> _error_"
       }
    }
}
