{
    "name":"MarkDuplicates",
    "Threads":"8",
    "Samples":"yes",
    "TmpOutput":"yes",
    "Parameters":{
        "default":{
            "Command": "picard MarkDuplicates",
            "Options":{
                "Input":"I=_inputfile_",
                "TMP":"TMP_DIR=/home/jmrosa/tmp",
                "Metric_file":"M=_outputfile_.metrics",
                "Remove":"REMOVE_DUPLICATES=TRUE",
                "Index":"CREATE_INDEX=true AS=false"
            },
            "Output":"O=_outputfile_",
            "Output_format":"bam",
            "Log":"> _log_ 2> _error_"
       }
    }
}
