{
    "name":"Regroups",
    "Samples":"yes",
    "Threads":"16",
    "TmpOutput":"yes",
    "Parameters":{
        "default":{
            "Command": "picard AddOrReplaceReadGroups",
            "Options":{
                "Input":"I=_inputfile_",
                "Sorting":"SORT_ORDER=coordinate",
                "ID":"ID=_name_",
                "Library":"LB=_ID___capture_",
                "Platform":"PL=_platform_",
                "Barcode":"PU=_ID_",
                "TMP":"TMP_DIR=/home/jmrosa/tmp",
                "Sample name":"SM=_name_",
                "Indexig":"CREATE_INDEX=TRUE"
            },
            "Output":"O=_outputfile_",
            "Output_format":"bam",
            "Log":"> _log_ 2> _error_"
       }
    }
}
