{
	"name":"Reseq Pipelines",
	"pipelines_path":"/input/jmrosa/git/python_projects/reseq/pipelines/H12O",
	"genomes":{
		"hg19":{
		"species":"human",
		"novoindex":"/home/jmrosa/genomes/hg19.fa.ndx",
		"fasta":"/home/jmrosa/genomes/hg19.fa"
		},
		"hg38":{
		"species":"human",
		"novoindex":"/home/jmrosa/genomes/hg38.fa.ndx",
		"fasta":"home/jmrosa/genomes/hg38.fa"
		},
		"cDNA":{
		"species":"human",
		"novoindex":"/input/jmrosa/genomes/hisat2/grch38_snp_tran",
		"fasta":"/input/jmrosa/genomes/hisat2/grch38_snp_tran/genome.fa"
		}
	},
	"capture_techs":{
		"SureSelect": {
          "SureSelectQXT_CancerPanel_JP":{
                      "files":{
                        "hg19": {
                          "covered": "",
                          "regions": "",
                          "varbedfile":""
                        },
                        "hg38": {
                          "covered": "",
                          "regions": "",
                          "varbedfile":""
                        }
                      },
                      "analysis":{
                          "1":{
                              "name":"alignment",
                              "steps":"1:MergeUBAMFiles,2:Novoalign,3:Regroups"
                          },
                          "2":{
                              "name":"processing",
                              "steps":"1:RealignCreator,2:IndelRealigner,3:LeftAlignIndels,4:MarkDuplicates,5:MergeSamFiles,6:SamtoolsFilter,7:SamtoolsResample"
                          },
                          "3":{
                              "name":"variant_calling",
                            "steps": "1:SamtoolsMpileup,2:VarScan,3:SplitVCF,4:Intersect_vcf"
                          },
                          "4":{
                              "name":"annotation",
                              "steps":"1:EnsemblVEP"
                          }
                      }
                  },
          "ExomeV6":{
                    "files":{
                        "hg38": {
                          "covered": "",
                          "regions": "",
                          "varbedfile":""
                        }
                    },
                    "analysis":{
                        "1":{
                            "name":"alignment",
                            "steps":"1:Novoalign,2:Regroups"
                        },
                        "2":{
                            "name":"processing",
                              "steps":"1:RealignCreator,2:IndelRealigner,3:LeftAlignIndels,4:MarkDuplicates,5:MergeSamFiles,6:SamtoolsFilter,7:SamtoolsResample"
                          },
                        "3":{
                              "name":"variant_calling",
                              "steps": "1:SamtoolsMpileup,2:VarScan,3:SplitVCF,4:Intersect_vcf"
                        },
                        "4":{
                            "name":"annotation",
                            "steps":"1:EnsemblVEP"
                        }
                    }
                }
			}
		},
	"Phases": {
	"alignment":{
	"previous":"None",
	"next":"processing"
	},
	"processing":{
	"previous":"alignment",
	"next": "variant_calling"
	},
	"variant_calling":{
	"previous":"processing",
	"next":"annotation"
	},
	"annotation":{
	"previous":"variant_calling",
	"next":"None"
	}
	}
}
