{
    "name":"SamtoolsFilter",
    "TmpOutput":"yes",
    "Parameters":{
        "default":{
            "Command": "samtools view -hb",
            "Options":{
                "Input":"_inputfile_",
                "Quality":"-q 1"
            },
            "Output":"-o _outputfile_",
            "Output_format":"bam",
            "Special":"&& samtools index _outputfile_",
            "Log":"> _log_ 2> _error_"
       }
    }
}
