{
    "name":"STAR",
    "Samples":"yes",
    "Threads":"2",
    "TmpOutput":"yes",
    "Parameters":{
        "default":{
            "Command": "STAR",
            "Options":{
                "CPUs":"--runThreadN 6",
                "Fasta":"--genomeDir _novoindex_",
                "Input":"--readFilesIn _inputfile_",
                "Junctions":"--outFilterType BySJout",
                "out_type":"--outSAMtype BAM SortedByCoordinate",
                "GeneCount":"--quantMode GeneCounts",
                "Passmode":"--twopassMode Basic",
                "InputRead":"--readFilesCommand zcat"
            },
            "Output":"--outFileNamePrefix _outputdir_",
            "Output_format":"dir",
            "Log":"2> _log_"

       }
    }
}
