{
	"name":"Reseq Pipelines",
	"pipelines_path":"/input/jmrosa/git/python_projects/reseq/pipelines/Cluster",
	"genomes":{
		"hg19":{
		"species":"human",
		"novoindex":"/input/jmrosa/genomes/hg19/hg19.chrM_fixed.fasta.novoalign.ndx",
		"fasta":"/input/jmrosa/genomes/hg19/hg19.chrM_fixed.fasta"
		},
		"hg20":{
		"species":"human",
		"novoindex":"/input/jmrosa/genomes/hg20/Homo_sapiens.GRCh38.dna.primary_assembly.fa.ndx",
		"fasta":"/input/jmrosa/genomes/hg20/Homo_sapiens.GRCh38.dna.primary_assembly.fa"
		},
		"cDNA":{
		"species":"human",
		"novoindex":"/input/jmrosa/genomes/hisat2/grch38_snp_tran",
		"fasta":"/input/jmrosa/genomes/hisat2/grch38_snp_tran/genome.fa"
		}
	},
	"capture_techs":{
		"Haloplex": {
			"Panel_Research_Cancer":{
						"files":{
						  "hg19": {
							"covered": "/input/jmrosa/Documents/Projects/Haloplex/Panel_Research_Cancer/Agilent_files/00100-1358503561_Covered.bed",
							"regions": "/input/jmrosa/Documents/Projects/Haloplex/Panel_Research_Cancer/Agilent_files/00100-1358503561_Regions.bed"
						  }
						  },
						"analysis":{
							"1":{
								"name":"alignment",
								"steps":"1:Tmap,2:Regroups"
							},
							"2":{
								"name":"processing",
								"steps":"1:RealignCreator,2:IndelRealigner,3:LeftAlignIndels,4:MergeSamFiles,5:SamtoolsFilter"
							},
							"3":{
								"name":"variant_calling",
								"steps":"1:SamtoolsResample,2:SamtoolsMpileup,3:VarScan,4:SplitVCF"
							},
							"4":{
								"name":"annotation",
								"steps":"1:EnsemblVEP"
							}
						}
			}
		},
		"Qiagen": {
			"BRCA":{
						"files":{
						  	"hg19": {
							  "covered": "/input/jmrosa/Documents/Projects/resequencing/Gene_Panels/Qiagen/BRCA/brcas.bed",
							  "regions": "/input/jmrosa/Documents/Projects/resequencing/Gene_Panels/Qiagen/BRCA/brcas.bed",
							  "canonics": "/input/jmrosa/Documents/Projects/resequencing/Gene_Panels/SureselectQXT/Diseno/EndOvarian_panel_transcripts.csv",
							  "pathogenic": "/input/jmrosa/Documents/Projects/resequencing/Gene_Panels/SureselectQXT/Diseno/EndOvarian_panel_tolerated.csv",
							  "falses": "/input/jmrosa/Documents/Projects/resequencing/Gene_Panels/SureselectQXT/Diseno/EndOvarian_panel_false_positives.csv"
							},
						  	"hg20": {
							  "covered": "/input/jmrosa/Documents/Projects/resequencing/Gene_Panels/Qiagen/BRCA/brcas_hg20.bed",
							  "regions": "/input/jmrosa/Documents/Projects/resequencing/Gene_Panels/Qiagen/BRCA/brcas_hg20.bed",
							  "canonics": "/input/jmrosa/Documents/Projects/resequencing/Gene_Panels/SureselectQXT/Diseno/EndOvarian_panel_transcripts.csv",
							  "pathogenic": "/input/jmrosa/Documents/Projects/resequencing/Gene_Panels/SureselectQXT/Diseno/EndOvarian_panel_tolerated.csv",
							  "falses": "/input/jmrosa/Documents/Projects/resequencing/Gene_Panels/SureselectQXT/Diseno/EndOvarian_panel_false_positives_hg20.csv"
							}
						},
						"analysis":{
							"1":{
								"name":"alignment",
								"steps":"1:Novoalign,2:Regroups"
							},
							"2":{
								"name":"processing",
								"steps":"1:RealignCreator,2:IndelRealigner,3:LeftAlignIndels,4:MergeSamFiles,5:SamtoolsFilter"
							},
							"3":{
								"name":"variant_calling",
								"steps":"1:SamtoolsResample,2:SamtoolsMpileup,3:VarScan,4:SplitVCF"
							},
							"4":{
								"name":"annotation",
								"steps":"1:EnsemblVEP"
							}
						}
			},
			"BRCA_plus":{
						"files":{
						  "hg19": {
							"covered": "/input/jmrosa/Documents/Projects/resequencing/Gene_Panels/Qiagen/BRCA_plus/bed/BRCA_plus.bed",
							"regions": "/input/jmrosa/Documents/Projects/resequencing/Gene_Panels/Qiagen/BRCA_plus/bed/BRCA_plus.bed",
							"canonics": "/input/jmrosa/Documents/Projects/resequencing/Gene_Panels/SureselectQXT/Diseno/EndOvarian_panel_transcripts.csv",
							"pathogenic": "/input/jmrosa/Documents/Projects/resequencing/Gene_Panels/SureselectQXT/Diseno/EndOvarian_panel_tolerated.csv",
							"falses": "/input/jmrosa/Documents/Projects/resequencing/Gene_Panels/SureselectQXT/Diseno/EndOvarian_panel_false_positives.csv"
						  }
						  },
						"analysis":{
							"1":{
								"name":"alignment",
								"steps":"1:Novoalign,2:Regroups"
							},
							"2":{
								"name":"processing",
								"steps":"1:RealignCreator,2:IndelRealigner,3:LeftAlignIndels,4:MergeSamFiles,5:SamtoolsFilter"
							},
							"3":{
								"name":"variant_calling",
								"steps":"1:SamtoolsResample,2:SamtoolsMpileup,3:VarScan,4:SplitVCF"
							},
							"4":{
								"name":"annotation",
								"steps":"1:EnsemblVEP"
							}
						}
			}
		},
		"Ampliseq": {
			"Panel_Cancer_v2":{
				"files":{
				  "hg19": {
					"covered": "/input/jmrosa/Documents/Projects/Ampliseq/Panel_Cancer_v2/Ampliseq_files/CHP2.20131001.designed.bed",
					"regions": "/input/jmrosa/Documents/Projects/Ampliseq/Panel_Cancer_v2/Ampliseq_files/CHP2.20131001.designed.bed"
				  }
				  },
				"analysis":{
					"1":{
						"name":"alignment",
						"steps":"1:Tmap,2:Regroups"
					},
					"2":{
						"name":"processing",
						"steps":"1:RealignCreator,2:IndelRealigner,3:LeftAlignIndels,4:MergeSamFiles,5:SamtoolsFilter"
					},
					"3":{
						"name":"variant_calling",
						"steps":"1:SamtoolsResample,2:SamtoolsMpileup,3:VarScan,4:SplitVCF"
					},
					"4":{
						"name":"annotation",
						"steps":"1:EnsemblVEP"
					}
				}
			},
			"OCAv3":{
				"files":{
				  "hg19": {
					"covered": "/input/jmrosa/Documents/Projects/resequencing/Gene_Panels/OCAv3/bed/OCAv3_20170110_designed.bed",
					"regions": "/input/jmrosa/Documents/Projects/resequencing/Gene_Panels/OCAv3/bed/OCAv3_20170110_designed.bed",
					"varbedfile": "/input/jmrosa/Documents/Projects/resequencing/Gene_Panels/OCAv3/bed/OCAv3_20170110_designed.bed"
				  }
				  },
				  "analysis":{
					  "1":{
						  "name":"alignment",
						  "steps":"1:Novoalign,2:Regroups"
					  },
					  "2":{
						  "name":"processing",
							"steps":"1:RealignCreator,2:IndelRealigner,3:LeftAlignIndels,4:MergeSamFiles,5:SamtoolsFilter,6:SamtoolsResample"
						},
					  "3":{
							"name":"variant_calling",
						    "steps": "1:SamtoolsMpileup,2:VarScan,3:SplitVCF,4:Intersect_vcf"
					  },
					  "4":{
						  "name":"annotation",
						  "steps":"1:EnsemblVEP"
					  }
				  }
			},
			"Exome":{
				"files":{
				  "hg19": {
					"covered": "/input/jmrosa/Documents/Projects/Exomes/Nimgenetics/AmpliSeqExome.20131001.designed.bed",
					"regions": "/input/jmrosa/Documents/Projects/Exomes/Nimgenetics/AmpliSeqExome.20131001.designed.bed"
				  }
				},
				"analysis":{
					"1":{
						"name":"alignment",
						"steps":"1:Novoalign_Ion,2:Regroups"
					},
					"2":{
						"name":"processing",
						"steps":"1:RealignCreator,2:IndelRealigner,3:LeftAlignIndels,4:MergeSamFiles,5:SamtoolsFilter"
					},
					"3":{
						"name":"variant_calling",
						"steps":"1:SamtoolsResample,2:SamtoolsMpileup,3:VarScan,4:SplitVCF"
					},
					"4":{
						"name":"annotation",
						"steps":"1:EnsemblVEP"
					}
				}
			}
		},
	  	"Trusight":{
          "Trusight_Tumour_15_PoolA": {
            "files": {
              "hg19": {
                "covered": "/input/jmrosa/Documents/Projects/resequencing/Gene_Panels/Trusight/bed/TST_15-A-manifest.bed",
                "regions": "/input/jmrosa/Documents/Projects/resequencing/Gene_Panels/Trusight/bed/TST_15-A-manifest.bed",
				"varbedfile": "/input/jmrosa/Documents/Projects/resequencing/Gene_Panels/Trusight/bed/TST_15-A-manifest.bed"
              }
            },
            "analysis": {
              "1": {
                "name": "alignment",
                "steps": "1:Novoalign,2:Regroups"
              },
              "2": {
                "name": "processing",
                "steps": "1:RealignCreator,2:IndelRealigner,3:LeftAlignIndels,4:MergeSamFiles,5:SamtoolsFilter,6:SamtoolsResample"
              },
              "3": {
                "name": "variant_calling",
                "steps": "1:SamtoolsMpileup,2:VarScan,3:SplitVCF,4:Intersect_vcf"
              }
            }
          },
          "Trusight_Tumour_15_PoolB": {
            "files": {
              "hg19": {
                "covered": "/input/jmrosa/Documents/Projects/resequencing/Gene_Panels/Trusight/bed/TST_15-B-manifest.bed",
                "regions": "/input/jmrosa/Documents/Projects/resequencing/Gene_Panels/Trusight/bed/TST_15-B-manifest.bed",
				"varbedfile": "/input/jmrosa/Documents/Projects/resequencing/Gene_Panels/Trusight/bed/TST_15-B-manifest.bed"
              }
            },
            "analysis": {
              "1": {
                "name": "alignment",
                "steps": "1:Novoalign,2:Regroups"
              },
              "2": {
                "name": "processing",
                "steps": "1:RealignCreator,2:IndelRealigner,3:LeftAlignIndels,4:MergeSamFiles,5:SamtoolsFilter,6:SamtoolsResample"
              },
              "3": {
                "name": "variant_calling",
                "steps": "1:SamtoolsMpileup,2:VarScan,3:SplitVCF,4:Intersect_vcf"
              }
            }
          },
          "Trusight_Tumour_15_Merge": {
            "analysis": {
              "1": {
                "name": "annotation",
                "steps": "1:IntersectVCFs, 2:EnsemblVEPPerSample"
              }
            }
          }
		},
		"SureSelect": {
          "Exome_51_Mb":{
                      "files":{
                        "hg19": {
                          "covered": "/input/jmrosa/Documents/Projects/Exomes/SistemasGenomicos/exome51_intervalos.bed",
                          "regions": "/input/jmrosa/Documents/Projects/Exomes/SistemasGenomicos/exome51_intervalos.bed"
                        }
                      },
                      "analysis":{
                          "1":{
                              "name":"alignment",
                              "steps":"1:Novoalign,2:Regroups"
                          },
                          "2":{
                              "name":"processing",
                              "steps":"1:RealignCreator,2:IndelRealigner,3:LeftAlignIndels,4:MarkDuplicates,5:MergeSamFiles,6:SamtoolsFilter,7:SamtoolsResample"
                          },
                          "3":{
                              "name":"variant_calling",
                            "steps": "1:SamtoolsMpileup,2:VarScan,3:SplitVCF,4:Intersect_vcf"
                          },
                          "4":{
                              "name":"annotation",
                              "steps":"1:EnsemblVEP"
                          }
                      }
                  },
          "Exome_50_Mb":{
                      "files":{
                        "hg19": {
                          "covered": "/input/jmrosa/Documents/Projects/IdelCastillo/exoma50_intervalos_captura.bed",
                          "regions": "/input/jmrosa/Documents/Projects/IdelCastillo/exoma50_intervalos_captura.bed"
                        }
                      },
                      "analysis":{
                          "1":{
                              "name":"alignment",
                              "steps":"1:Novoalign,2:Regroups"
                          },
                          "2":{
                              "name":"processing",
                              "steps":"1:RealignCreator,2:IndelRealigner,3:LeftAlignIndels,4:MarkDuplicates,5:MergeSamFiles,6:SamtoolsFilter,7:SamtoolsResample"
                          },
                          "3":{
                              "name":"variant_calling",
                            "steps": "1:SamtoolsMpileup,2:VarScan,3:SplitVCF,4:Intersect_vcf"
                          },
                          "4":{
                              "name":"annotation",
                              "steps":"1:EnsemblVEP"
                          }
                      }
                  },
          "SureSelectQXT_CancerPanel_JP":{
                      "files":{
                        "hg19": {
                          "covered": "/input/jmrosa/Documents/Projects/resequencing/Gene_Panels/SureselectQXT/bed/CancerPanel_0688491_Covered.bed",
                          "regions": "/input/jmrosa/Documents/Projects/resequencing/Gene_Panels/SureselectQXT/bed/CancerPanel_0688491_Covered.bed",
                          "varbedfile":"/input/jmrosa/Documents/Projects/resequencing/Gene_Panels/SureselectQXT/bed/CancerPanel_0688491_Covered_genic.bed"
                        },
                        "hg20": {
                          "covered": "/input/jmrosa/Documents/Projects/resequencing/Gene_Panels/SureselectQXT/bed/CancerPanel_0688491_Covered_hg20.bed",
                          "regions": "/input/jmrosa/Documents/Projects/resequencing/Gene_Panels/SureselectQXT/bed/CancerPanel_0688491_Covered_hg20.bed",
                          "varbedfile":"/input/jmrosa/Documents/Projects/resequencing/Gene_Panels/SureselectQXT/bed/CancerPanel_0688491_Covered_hg20_genic.bed"
                        }
                      },
                      "analysis":{
                          "1":{
                              "name":"alignment",
                              "steps":"1:MergeUBAMFiles,2:Novoalign,3:Regroups"
                          },
                          "2":{
                              "name":"processing",
                              "steps":"1:RealignCreator,2:IndelRealigner,3:LeftAlignIndels,4:MarkDuplicates,5:MergeSamFiles,6:SamtoolsFilter,7:SamtoolsResample"
                          },
                          "3":{
                              "name":"variant_calling",
                            "steps": "1:SamtoolsMpileup,2:VarScan,3:SplitVCF,4:Intersect_vcf"
                          },
                          "4":{
                              "name":"annotation",
                              "steps":"1:EnsemblVEP"
                          }
                      }
                  },
          "SureSelectQXT_CancerPanel_JP_v2":{
                      "files":{
                        "hg20": {
                          "covered": "/input/jmrosa/Documents/Projects/resequencing/Gene_Panels/SureselectQXT/bed/CancerPanel_3215461_Covered_hg20.bed",
                          "regions": "/input/jmrosa/Documents/Projects/resequencing/Gene_Panels/SureselectQXT/bed/CancerPanel_3215461_Covered_hg20.bed",
                          "varbedfile":"/input/jmrosa/Documents/Projects/resequencing/Gene_Panels/SureselectQXT/bed/CancerPanel_3215461_Covered_hg20_genic.bed"
                        }
                      },
                      "analysis":{
                          "1":{
                              "name":"alignment",
                              "steps":"1:MergeUBAMFiles,2:Novoalign,3:Regroups"
                          },
                          "2":{
                              "name":"processing",
                              "steps":"1:RealignCreator,2:IndelRealigner,3:LeftAlignIndels,4:MarkDuplicates,5:MergeSamFiles,6:SamtoolsFilter,7:SamtoolsResample"
                          },
                          "3":{
                              "name":"variant_calling",
                            "steps": "1:SamtoolsMpileup,2:VarScan,3:SplitVCF,4:Intersect_vcf"
                          },
                          "4":{
                              "name":"annotation",
                              "steps":"1:EnsemblVEP"
                          }
                      }
                  },
          "SureSelectQXT_OvarianPanel_JP":{
                      "files":{
                        "hg19": {
                          "covered": "/input/jmrosa/Documents/Projects/resequencing/Gene_Panels/SureselectQXT/bed/EndOvarian_0759651_Covered.bed",
                          "regions": "/input/jmrosa/Documents/Projects/resequencing/Gene_Panels/SureselectQXT/bed/EndOvarian_0759651_Covered.bed",
                          "canonics": "/input/jmrosa/Documents/Projects/resequencing/Gene_Panels/SureselectQXT/Diseno/EndOvarian_panel_transcripts.csv",
                          "pathogenic": "/input/jmrosa/Documents/Projects/resequencing/Gene_Panels/SureselectQXT/Diseno/EndOvarian_panel_tolerated.csv",
                          "varbedfile":"/input/jmrosa/Documents/Projects/resequencing/Gene_Panels/SureselectQXT/bed/EndOvarian_0759651_Covered_genic.bed",
                          "falses": "/input/jmrosa/Documents/Projects/resequencing/Gene_Panels/SureselectQXT/Diseno/EndOvarian_panel_false_positives.csv"
                        },
                        "hg20": {
                          "covered": "/input/jmrosa/Documents/Projects/resequencing/Gene_Panels/SureselectQXT/bed/EndOvarian_0759651_Covered_hg20.bed",
                          "regions": "/input/jmrosa/Documents/Projects/resequencing/Gene_Panels/SureselectQXT/bed/EndOvarian_0759651_Covered_hg20.bed",
                          "canonics": "/input/jmrosa/Documents/Projects/resequencing/Gene_Panels/SureselectQXT/Diseno/EndOvarian_panel_transcripts.csv",
                          "pathogenic": "/input/jmrosa/Documents/Projects/resequencing/Gene_Panels/SureselectQXT/Diseno/EndOvarian_panel_tolerated.csv",
                          "varbedfile":"/input/jmrosa/Documents/Projects/resequencing/Gene_Panels/SureselectQXT/bed/EndOvarian_0759651_Covered_hg20_genic.bed",
                          "falses": "/input/jmrosa/Documents/Projects/resequencing/Gene_Panels/SureselectQXT/Diseno/EndOvarian_panel_false_positives_hg20.csv"
                        }
                      },
                      "analysis":{
                          "1":{
                              "name":"alignment",
                              "steps":"1:Novoalign,2:Regroups"
                          },
                          "2":{
                              "name":"processing",
                              "steps":"1:RealignCreator,2:IndelRealigner,3:LeftAlignIndels,4:MarkDuplicates,5:MergeSamFiles,6:SamtoolsFilter,7:SamtoolsResample"
                          },
                          "3":{
                              "name":"variant_calling",
                              "steps": "1:SamtoolsMpileup,2:VarScan,3:SplitVCF,4:Intersect_vcf"
                          },
                          "4":{
                              "name":"annotation",
                              "steps":"1:EnsemblVEP"
                          }
                      }
                  },
          "SureSelectQXT_BreastPanel_JP": {
                    "files": {
                        "hg19": {
                          "covered": "/input/jmrosa/Documents/Projects/resequencing/Gene_Panels/SureselectQXT/bed/Breast_0759661_Covered.bed",
                          "regions": "/input/jmrosa/Documents/Projects/resequencing/Gene_Panels/SureselectQXT/bed/Breast_0759661_Covered.bed",
                          "canonics": "/input/jmrosa/Documents/Projects/resequencing/Gene_Panels/SureselectQXT/Diseno/Breast_panel_transcripts.csv",
                          "pathogenic": "/input/jmrosa/Documents/Projects/resequencing/Gene_Panels/SureselectQXT/Diseno/Breast_panel_tolerated.csv",
                          "varbedfile":"/input/jmrosa/Documents/Projects/resequencing/Gene_Panels/SureselectQXT/bed/Breast_0759661_Covered_genic.bed",
                          "falses": "/input/jmrosa/Documents/Projects/resequencing/Gene_Panels/SureselectQXT/Diseno/Breast_panel_false_positives.csv"
                        },
                        "hg20": {
                          "covered": "/input/jmrosa/Documents/Projects/resequencing/Gene_Panels/SureselectQXT/bed/Breast_0759661_Covered_hg20.bed",
                          "regions": "/input/jmrosa/Documents/Projects/resequencing/Gene_Panels/SureselectQXT/bed/Breast_0759661_Covered_hg20.bed",
                          "canonics": "/input/jmrosa/Documents/Projects/resequencing/Gene_Panels/SureselectQXT/Diseno/Breast_panel_transcripts.csv",
                          "pathogenic": "/input/jmrosa/Documents/Projects/resequencing/Gene_Panels/SureselectQXT/Diseno/Breast_panel_tolerated.csv",
                          "varbedfile":"/input/jmrosa/Documents/Projects/resequencing/Gene_Panels/SureselectQXT/bed/Breast_0759661_Covered_hg20_genic.bed",
                          "falses": "/input/jmrosa/Documents/Projects/resequencing/Gene_Panels/SureselectQXT/Diseno/Breast_panel_false_positives_hg20.csv"
                        }
                    },
                    "analysis": {
                        "1": {
                            "name": "alignment",
                            "steps": "1:MergeUBAMFiles,2:Novoalign,3:Regroups"
                        },
                        "2": {
                            "name": "processing",
                              "steps":"1:RealignCreator,2:IndelRealigner,3:LeftAlignIndels,4:MarkDuplicates,5:MergeSamFiles,6:SamtoolsFilter,7:SamtoolsResample"
                          },
                          "3":{
                              "name":"variant_calling",
                              "steps": "1:SamtoolsMpileup,2:VarScan,3:SplitVCF,4:Intersect_vcf"
                        },
                        "4": {
                            "name": "annotation",
                            "steps": "1:EnsemblVEP"
                        }
                    }
                },
          "SureSelectQXT_Onc":{
                    "files":{
                        "hg19": {
                          "covered":"/input/jmrosa/Documents/Projects/resequencing/Gene_Panels/SureselectQXT/bed/Oncologia_3015251_Covered.bed",
                          "regions":"/input/jmrosa/Documents/Projects/resequencing/Gene_Panels/SureselectQXT/bed/Oncologia_3015251_Covered.bed",
                          "canonics": "/input/jmrosa/Documents/Projects/resequencing/Gene_Panels/SureselectQXT/Diseno/Oncologia_transcripts.csv",
                          "pathogenic": "/input/jmrosa/Documents/Projects/resequencing/Gene_Panels/SureselectQXT/Diseno/EndOvarian_panel_tolerated.csv",
                          "varbedfile":"/input/jmrosa/Documents/Projects/resequencing/Gene_Panels/SureselectQXT/bed/Oncologia_3015251_Covered.bed",
                          "falses": "/input/jmrosa/Documents/Projects/resequencing/Gene_Panels/SureselectQXT/Diseno/EndOvarian_panel_false_positives.csv"
                        },
                        "hg20": {
                          "covered": "/input/jmrosa/Documents/Projects/resequencing/Gene_Panels/SureselectQXT/bed/Oncologia_3015251_Covered_hg20.bed",
                          "regions": "/input/jmrosa/Documents/Projects/resequencing/Gene_Panels/SureselectQXT/bed/Oncologia_3015251_Covered_hg20.bed",
                          "canonics": "/input/jmrosa/Documents/Projects/resequencing/Gene_Panels/SureselectQXT/Diseno/Oncologia_transcripts.csv",
                          "pathogenic": "/input/jmrosa/Documents/Projects/resequencing/Gene_Panels/SureselectQXT/Diseno/EndOvarian_panel_tolerated.csv",
                          "varbedfile":"/input/jmrosa/Documents/Projects/resequencing/Gene_Panels/SureselectQXT/bed/Oncologia_3015251_Covered_hg20.bed",
                          "falses": "/input/jmrosa/Documents/Projects/resequencing/Gene_Panels/SureselectQXT/Diseno/EndOvarian_panel_false_positives_hg20.csv"
                        }
                    },
                    "analysis":{
                        "1":{
                            "name":"alignment",
                            "steps":"1:Novoalign,2:Regroups"
                        },
                        "2":{
                            "name":"processing",
                              "steps":"1:RealignCreator,2:IndelRealigner,3:LeftAlignIndels,4:MarkDuplicates,5:MergeSamFiles,6:SamtoolsFilter,7:SamtoolsResample"
                          },
                          "3":{
                              "name":"variant_calling",
                              "steps": "1:SamtoolsMpileup,2:VarScan,3:SplitVCF,4:Intersect_vcf"
                        },
                        "4":{
                            "name":"annotation",
                            "steps":"1:EnsemblVEP"
                        }
                    }
                },
          "ExomeV6":{
                    "files":{
                        "hg20": {
                          "covered": "/input/jmrosa/Documents/Projects/resequencing/Gene_Panels/SureSelectXT/bed/ExomeV6_S07604514_Covered.bed",
                          "regions": "/input/jmrosa/Documents/Projects/resequencing/Gene_Panels/SureSelectXT/bed/ExomeV6_S07604514_Covered.bed",
                          "varbedfile":"/input/jmrosa/Documents/Projects/resequencing/Gene_Panels/SureSelectXT/bed/ExomeV6_S07604514_Covered.bed"
                        }
                    },
                    "analysis":{
                        "1":{
                            "name":"alignment",
                            "steps":"1:Novoalign,2:Regroups"
                        },
                        "2":{
                            "name":"processing",
                              "steps":"1:RealignCreator,2:IndelRealigner,3:LeftAlignIndels,4:MarkDuplicates,5:MergeSamFiles,6:SamtoolsFilter,7:SamtoolsResample"
                          },
                        "3":{
                              "name":"variant_calling",
                              "steps": "1:SamtoolsMpileup,2:VarScan,3:SplitVCF,4:Intersect_vcf"
                        },
                        "4":{
                            "name":"annotation",
                            "steps":"1:EnsemblVEP"
                        }
                    }
                },
          "SureSelectXT_AllinOne":{
                    "files":{
                        "hg20": {
                          "covered": "/input/jmrosa/Documents/Projects/resequencing/Gene_Panels/SureSelectXT/bed/AllinOne_3128521_Covered.bed",
                          "regions": "/input/jmrosa/Documents/Projects/resequencing/Gene_Panels/SureSelectXT/bed/AllinOne_3128521_Covered.bed",
                          "canonics": "/input/jmrosa/Documents/Projects/resequencing/Gene_Panels/SureSelectXT/bed/AllinOne_3128521_panel_transcripts.csv",
                          "pathogenic": "/input/jmrosa/Documents/Projects/resequencing/Gene_Panels/SureSelectXT/bed/AllinOne_3128521_panel_tolerated_tmp.csv",
                          "varbedfile":"/input/jmrosa/Documents/Projects/resequencing/Gene_Panels/SureSelectXT/bed/AllinOne_3128521_Covered_varbed.bed",
                          "falses": "/input/jmrosa/Documents/Projects/resequencing/Gene_Panels/SureSelectXT/bed/AllinOne_3128521_false_positives.csv"
                        },
                        "hg19": {
                          "covered": "/input/jmrosa/Documents/Projects/resequencing/Gene_Panels/SureSelectXT/bed/AllinOne_3128521_Covered_hg19.bed",
                          "regions": "/input/jmrosa/Documents/Projects/resequencing/Gene_Panels/SureSelectXT/bed/AllinOne_3128521_Covered_hg19.bed",
                          "canonics": "",
                          "pathogenic": "",
                          "varbedfile":"/input/jmrosa/Documents/Projects/resequencing/Gene_Panels/SureSelectXT/bed/AllinOne_3128521_Covered_varbed_hg19.bed",
                          "falses": ""
                        }
                    },
                    "analysis":{
                        "1":{
                            "name":"alignment",
                            "steps":"1:MergeUBAMFiles,2:Novoalign,3:Regroups"
                        },
                        "2":{
                            "name":"processing",
                              "steps":"1:RealignCreator,2:IndelRealigner,3:LeftAlignIndels,4:MarkDuplicates,5:MergeSamFiles,6:SamtoolsFilter,7:SamtoolsResample"
                          },
                        "3":{
                              "name":"variant_calling",
                              "steps": "1:SamtoolsMpileup,2:VarScan,3:SplitVCF,4:Intersect_vcf"
                        },
                        "4":{
                            "name":"annotation",
                            "steps":"1:EnsemblVEP"
                        }
                    }
                },
          "SureSelectXT_AllinOne_v2":{
                    "files":{
                        "hg20": {
                          "covered": "/input/jmrosa/Documents/Projects/resequencing/Gene_Panels/SureSelectXT/bed/AllinOne_v2_3177531_Covered.bed",
                          "regions": "/input/jmrosa/Documents/Projects/resequencing/Gene_Panels/SureSelectXT/bed/AllinOne_v2_3177531_Covered.bed",
                          "canonics": "/input/jmrosa/Documents/Projects/resequencing/Gene_Panels/SureSelectXT/bed/AllinOne_3128521_panel_transcripts.csv",
                          "pathogenic": "/input/jmrosa/Documents/Projects/resequencing/Gene_Panels/SureSelectXT/bed/AllinOne_3128521_panel_tolerated_tmp.csv",
                          "varbedfile":"/input/jmrosa/Documents/Projects/resequencing/Gene_Panels/SureSelectXT/bed/AllinOne_v2_3177531_Covered_varbed.bed",
                          "falses": "/input/jmrosa/Documents/Projects/resequencing/Gene_Panels/SureSelectXT/bed/AllinOne_3128521_false_positives.csv"
                        },
                        "hg19": {
                          "covered": "/input/jmrosa/Documents/Projects/resequencing/Gene_Panels/SureSelectXT/bed/AllinOne_3128521_Covered_hg19.bed",
                          "regions": "/input/jmrosa/Documents/Projects/resequencing/Gene_Panels/SureSelectXT/bed/AllinOne_3128521_Covered_hg19.bed",
                          "canonics": "",
                          "pathogenic": "",
                          "varbedfile":"/input/jmrosa/Documents/Projects/resequencing/Gene_Panels/SureSelectXT/bed/AllinOne_3128521_Covered_varbed_hg19.bed",
                          "falses": ""
                        }
                    },
                    "analysis":{
                        "1":{
                            "name":"alignment",
                            "steps":"1:MergeUBAMFiles,2:Novoalign,3:Regroups"
                        },
                        "2":{
                            "name":"processing",
                              "steps":"1:RealignCreator,2:IndelRealigner,3:LeftAlignIndels,4:MarkDuplicates,5:MergeSamFiles,6:SamtoolsFilter,7:SamtoolsResample"
                          },
                        "3":{
                              "name":"variant_calling",
                              "steps": "1:SamtoolsMpileup,2:VarScan,3:SplitVCF,4:Intersect_vcf"
                        },
                        "4":{
                            "name":"annotation",
                            "steps":"1:EnsemblVEP"
                        }
                    }
                },
          "SureSelectXT_AllinOne_v2_Illumina":{
                    "files":{
                        "hg20": {
                          "covered": "/input/jmrosa/Documents/Projects/resequencing/Gene_Panels/SureSelectXT/bed/AllinOne_v2_3177531_Covered.bed",
                          "regions": "/input/jmrosa/Documents/Projects/resequencing/Gene_Panels/SureSelectXT/bed/AllinOne_v2_3177531_Covered.bed",
                          "canonics": "/input/jmrosa/Documents/Projects/resequencing/Gene_Panels/SureSelectXT/bed/AllinOne_3128521_panel_transcripts.csv",
                          "pathogenic": "/input/jmrosa/Documents/Projects/resequencing/Gene_Panels/SureSelectXT/bed/AllinOne_3128521_panel_tolerated_tmp.csv",
                          "varbedfile":"/input/jmrosa/Documents/Projects/resequencing/Gene_Panels/SureSelectXT/bed/AllinOne_v2_3177531_Covered_varbed.bed",
                          "falses": "/input/jmrosa/Documents/Projects/resequencing/Gene_Panels/SureSelectXT/bed/AllinOne_3128521_false_positives.csv"
                        },
                        "hg19": {
                          "covered": "/input/jmrosa/Documents/Projects/resequencing/Gene_Panels/SureSelectXT/bed/AllinOne_3128521_Covered_hg19.bed",
                          "regions": "/input/jmrosa/Documents/Projects/resequencing/Gene_Panels/SureSelectXT/bed/AllinOne_3128521_Covered_hg19.bed",
                          "canonics": "",
                          "pathogenic": "",
                          "varbedfile":"/input/jmrosa/Documents/Projects/resequencing/Gene_Panels/SureSelectXT/bed/AllinOne_3128521_Covered_varbed_hg19.bed",
                          "falses": ""
                        }
                    },
                    "analysis":{
                        "1":{
                            "name":"alignment",
                            "steps":"1:Novoalign,2:Regroups"
                        },
                        "2":{
                            "name":"processing",
                              "steps":"1:RealignCreator,2:IndelRealigner,3:LeftAlignIndels,4:MarkDuplicates,5:MergeSamFiles,6:SamtoolsFilter,7:SamtoolsResample"
                          },
                        "3":{
                              "name":"variant_calling",
                              "steps": "1:SamtoolsMpileup,2:VarScan,3:SplitVCF,4:Intersect_vcf"
                        },
                        "4":{
                            "name":"annotation",
                            "steps":"1:EnsemblVEP"
                        }
                    }
                },
          "SureSelectXT_PET_v3":{
                    "files":{
                        "hg19": {
                          "covered": "/input/jmrosa/Documents/Projects/resequencing/Hematologia/bed/v3/3139011_Covered.bed",
                          "regions": "/input/jmrosa/Documents/Projects/resequencing/Hematologia/bed/v3/3139011_Covered.bed",
                          "canonics": "",
                          "pathogenic": "",
                          "varbedfile":"/input/jmrosa/Documents/Projects/resequencing/Hematologia/bed/v3/3139011_Covered.bed",
                          "falses": ""
                        }
                    },
                    "analysis":{
                        "1":{
                            "name":"alignment",
                            "steps":"1:Novoalign,2:Regroups"
                        },
                        "2":{
                            "name":"processing",
                              "steps":"1:RealignCreator,2:IndelRealigner,3:LeftAlignIndels,4:MarkDuplicates,5:MergeSamFiles,6:SamtoolsFilter,7:SamtoolsResample"
                          },
                        "3":{
                              "name":"variant_calling",
                              "steps": "1:SamtoolsMpileup,2:VarScan,3:SplitVCF,4:Intersect_vcf"

                        }
                    }
                },
          "SureSelectXT_PET_v2":{
                    "files":{
                        "hg19": {
                          "covered": "/input/jmrosa/Documents/Projects/resequencing/Hematologia/bed/v2/3139011_Covered.bed",
                          "regions": "/input/jmrosa/Documents/Projects/resequencing/Hematologia/bed/v2/3139011_Covered.bed",
                          "canonics": "",
                          "pathogenic": "",
                          "varbedfile":"/input/jmrosa/Documents/Projects/resequencing/Hematologia/bed/v2/3139011_Covered.bed",
                          "falses": ""
                        }
                    },
                    "analysis":{
                        "1":{
                            "name":"alignment",
                            "steps":"1:Novoalign,2:Regroups"
                        },
                        "2":{
                            "name":"processing",
                              "steps":"1:RealignCreator,2:IndelRealigner,3:LeftAlignIndels,4:MarkDuplicates,5:MergeSamFiles,6:SamtoolsFilter,7:SamtoolsResample"
                          },
                        "3":{
                              "name":"variant_calling",
                              "steps": "1:SamtoolsMpileup,2:VarScan,3:SplitVCF,4:Intersect_vcf"

                        },
                        "4":{
                            "name":"annotation",
                            "steps":"1:EnsemblVEP"
                        }
                    }
                },
          "SureSelectXT_PET_v2_v3":{
                    "files":{
                        "hg20": {
                          "covered": "/input/jmrosa/Documents/Projects/resequencing/Hematologia/bed/PET_common_v2_v3_hg20.bed",
                          "regions": "/input/jmrosa/Documents/Projects/resequencing/Hematologia/bed/PET_common_v2_v3_hg20.bed",
                          "varbedfile":"/input/jmrosa/Documents/Projects/resequencing/Hematologia/bed/PET_common_v2_v3_hg20.bed"
                        }
                    },
                    "analysis":{
                        "1":{
                            "name":"alignment",
                            "steps":"1:Novoalign,2:Regroups"
                        },
                        "2":{
                            "name":"processing",
                              "steps":"1:RealignCreator,2:IndelRealigner,3:LeftAlignIndels,4:MarkDuplicates,5:MergeSamFiles,6:SamtoolsFilter,7:SamtoolsResample"
                          },
                        "3":{
                              "name":"variant_calling",
                              "steps": "1:SamtoolsMpileup,2:VarScan,3:SplitVCF,4:Intersect_vcf"

                        },
                        "4":{
                            "name":"annotation",
                            "steps":"1:EnsemblVEP"
                        }
                    }
                },
          "SureSelectXT_HS_v2":{
                    "files":{
                        "hg20": {
                          "covered": "/input/jmrosa/Documents/Projects/resequencing/Francisco/bed/HS_v2_3143621_Covered.bed",
                          "regions": "/input/jmrosa/Documents/Projects/resequencing/Francisco/bed/HS_v2_3143621_Covered.bed",
                          "canonics": "",
                          "pathogenic": "",
                          "varbedfile":"/input/jmrosa/Documents/Projects/resequencing/Francisco/bed/HS_v2_3143621_Covered.bed",
                          "falses": ""
                        }
                    },
                    "analysis":{
                        "1":{
                            "name":"alignment",
                            "steps":"1:Novoalign,2:Regroups"
                        },
                        "2":{
                            "name":"processing",
                              "steps":"1:RealignCreator,2:IndelRealigner,3:LeftAlignIndels,4:MarkDuplicates,5:MergeSamFiles,6:SamtoolsFilter,7:SamtoolsResample"
                          },
                        "3":{
                              "name":"variant_calling",
                              "steps": "1:SamtoolsMpileup,2:VarScan,3:SplitVCF,4:Intersect_vcf"

                        }
                    }
                },
          "SureSelectQXT_Hem":{
                    "files":{
                        "hg19": {
                          "covered": "/input/jmrosa/Documents/Projects/resequencing/Gene_Panels/SureselectQXT/bed/PTE_V3_1_Covered.bed",
                          "regions": "/input/jmrosa/Documents/Projects/resequencing/Gene_Panels/SureselectQXT/bed/PTE_V3_1_Covered.bed",
                          "canonics": "/input/jmrosa/Documents/Projects/resequencing/Gene_Panels/SureselectQXT/Diseno/Oncologia_transcripts.csv",
                          "pathogenic": "/input/jmrosa/Documents/Projects/resequencing/Gene_Panels/SureselectQXT/Diseno/EndOvarian_panel_tolerated.csv",
                          "varbedfile": "/input/jmrosa/Documents/Projects/resequencing/Gene_Panels/SureselectQXT/bed/PTE_V3_1_Covered.bed",
                          "falses": "/input/jmrosa/Documents/Projects/resequencing/Gene_Panels/SureselectQXT/Diseno/EndOvarian_panel_false_positives.csv"
                        }
                    },
                    "analysis":{
                        "1":{
                            "name":"alignment",
                            "steps":"1:Novoalign,2:Regroups"
                        },
                        "2":{
                            "name":"processing",
                          "steps":"1:RealignCreator,2:IndelRealigner,3:LeftAlignIndels,4:MarkDuplicates,5:MergeSamFiles,6:SamtoolsFilter,7:SamtoolsResample"
                          },
                          "3":{
                              "name":"variant_calling",
                              "steps": "1:SamtoolsMpileup,2:VarScan,3:SplitVCF,4:Intersect_vcf"
                        },
                        "4":{
                            "name":"annotation",
                            "steps":"1:EnsemblVEP"
                        }
                    }
                },
          "SureSelectQXT_HS":{
                    "files":{
                        "hg19": {
                          "covered": "/input/jmrosa/Documents/Projects/resequencing/Gene_Panels/SureselectQXT/design/Francisco/HS_Regions.bed",
                          "regions": "/input/jmrosa/Documents/Projects/resequencing/Gene_Panels/SureselectQXT/design/Francisco/HS_Regions.bed",
                          "canonics": "",
                          "pathogenic": "",
                          "varbedfile": "/input/jmrosa/Documents/Projects/resequencing/Gene_Panels/SureselectQXT/design/Francisco/HS_Regions.bed",
                          "falses": ""
                        }
                    },
                    "analysis":{
                        "1":{
                            "name":"alignment",
                            "steps":"1:Novoalign,2:Regroups"
                        },
                        "2":{
                            "name":"processing",
                              "steps":"1:RealignCreator,2:IndelRealigner,3:LeftAlignIndels,4:MarkDuplicates,5:MergeSamFiles,6:SamtoolsFilter,7:SamtoolsResample"
                          },
                        "3":{
                              "name":"variant_calling",
                              "steps": "1:SamtoolsMpileup,2:VarScan,3:SplitVCF"
                          },
                        "4":{
                              "name":"annotation",
                              "steps": "1:Intersect_vcf"
                        }
                    }
                },
          "SureSelectQXT_CancerPanel_JP_cDNA":{
                      "files":{
                        "cDNA": {
                          "covered": "/input/jmrosa/Documents/Projects/resequencing/Gene_Panels/SureselectQXT/bed/CancerPanel_0688491_Covered_hg20_cDNA.bed",
                          "regions": "/input/jmrosa/Documents/Projects/resequencing/Gene_Panels/SureselectQXT/bed/CancerPanel_0688491_Covered_hg20_cDNA.bed",
                          "varbedfile":"/input/jmrosa/Documents/Projects/resequencing/Gene_Panels/SureselectQXT/bed/CancerPanel_0688491_Covered_hg20_genic_cDNA.bed"
                        }
                      },
                      "analysis":{
                          "1":{
                              "name":"alignment",
                              "steps":"1:MergeUBAMFiles,2:STAR,3:Regroups"
                          },
                          "2":{
                              "name":"processing",
                              "steps":"1:RealignCreator,2:IndelRealigner,3:LeftAlignIndels,4:MergeSamFiles,5:SamtoolsFilter,6:SamtoolsResample"
                          },
                          "3":{
                              "name":"variant_calling",
                            "steps": "1:SamtoolsMpileup,2:VarScan,3:SplitVCF,4:Intersect_vcf"
                          },
                          "4":{
                              "name":"annotation",
                              "steps":"1:EnsemblVEP"
                          }
                      }
                  },
          "SureSelectQXT_CancerPanel_JP_cDNA_Miseq":{
                      "files":{
                        "cDNA": {
                          "covered": "/input/jmrosa/Documents/Projects/resequencing/Gene_Panels/SureselectQXT/bed/CancerPanel_0688491_Covered_hg20_cDNA.bed",
                          "regions": "/input/jmrosa/Documents/Projects/resequencing/Gene_Panels/SureselectQXT/bed/CancerPanel_0688491_Covered_hg20_cDNA.bed",
                          "varbedfile":"/input/jmrosa/Documents/Projects/resequencing/Gene_Panels/SureselectQXT/bed/CancerPanel_0688491_Covered_hg20_genic_cDNA.bed"
                        }
                      },
                      "analysis":{
                          "1":{
                              "name":"alignment",
                              "steps":"1:STAR,2:Regroups"
                          },
                          "2":{
                              "name":"processing",
                              "steps":"1:RealignCreator,2:IndelRealigner,3:LeftAlignIndels,4:MergeSamFiles,5:SamtoolsFilter,6:SamtoolsResample"
                          },
                          "3":{
                              "name":"variant_calling",
                            "steps": "1:SamtoolsMpileup,2:VarScan,3:SplitVCF,4:Intersect_vcf"
                          },
                          "4":{
                              "name":"annotation",
                              "steps":"1:EnsemblVEP"
                          }
                      }
                  },
          "SureSelectXT_EMT_Expression_Panel":{
                      "files":{
                        "cDNA": {
                          "covered": "/input/jmrosa/Documents/Projects/resequencing/Gene_Panels/SureSelectXT/bed/EMT_expression_3171661_Covered_hg20_rnaseq.bed",
                          "regions": "/input/jmrosa/Documents/Projects/resequencing/Gene_Panels/SureSelectXT/bed/EMT_expression_3171661_Covered_hg20_rnaseq.bed",
                          "varbedfile":"/input/jmrosa/Documents/Projects/resequencing/Gene_Panels/SureSelectXT/bed/EMT_expression_3171661_Covered_hg20_rnaseq.bed"
                        }
                      },
                      "analysis":{
                          "1":{
                              "name":"alignment",
                              "steps":"1:MergeUBAMFiles,2:STAR,3:Regroups"
                          },
                          "2":{
                              "name":"processing",
                              "steps":"1:RealignCreator,2:IndelRealigner,3:LeftAlignIndels,4:MergeSamFiles,5:SamtoolsFilter,6:SamtoolsResample"
                          },
                          "3":{
                              "name":"variant_calling",
                            "steps": "1:SamtoolsMpileup,2:VarScan,3:SplitVCF,4:Intersect_vcf"
                          },
                          "4":{
                              "name":"annotation",
                              "steps":"1:EnsemblVEP"
                          }
                      }
                  },
          "SureSelectXT_EMT_Expression_Panel_DNA":{
                      "files":{
                        "hg20": {
                          "covered": "/input/jmrosa/Documents/Projects/resequencing/Gene_Panels/SureSelectXT/bed/EMT_expression_3171661_Covered_hg20.bed",
                          "regions": "/input/jmrosa/Documents/Projects/resequencing/Gene_Panels/SureSelectXT/bed/EMT_expression_3171661_Covered_hg20.bed",
                          "varbedfile":"/input/jmrosa/Documents/Projects/resequencing/Gene_Panels/SureSelectXT/bed/EMT_expression_3171661_Covered_hg20.bed"
                        }
                      },
                      "analysis":{
                          "1":{
                              "name":"alignment",
                              "steps":"1:Novoalign,2:Regroups"
                          },
                          "2":{
                              "name":"processing",
                              "steps":"1:RealignCreator,2:IndelRealigner,3:LeftAlignIndels,4:MarkDuplicates,5:MergeSamFiles,6:SamtoolsFilter,7:SamtoolsResample"
                          },
                          "3":{
                              "name":"variant_calling",
                            "steps": "1:SamtoolsMpileup,2:VarScan,3:SplitVCF,4:Intersect_vcf"
                          },
                          "4":{
                              "name":"annotation",
                              "steps":"1:EnsemblVEP"
                          }
                      }
                  }
			}
		},
	"Phases": {
	"alignment":{
	"previous":"None",
	"next":"processing"
	},
	"processing":{
	"previous":"alignment",
	"next": "variant_calling"
	},
	"variant_calling":{
	"previous":"processing",
	"next":"annotation"
	},
	"annotation":{
	"previous":"variant_calling",
	"next":"None"
	}
	}
}
