{
    "name":"TMAP",
    "Samples":"yes",
    "Threads":"1",
    "TmpOutput":"yes",
    "Parameters":{
        "default":{
            "Command": "tmap mapall",
            "Options":{
                "Fasta":"-f _fasta_",
                "Input":"-r _inputfile_",
                "Input_format":"-i _format_",
                "Soft_clipping":"-g 0",
                "Threads":"-n 2",
                "Output_mode":"-a 2",
                "Output_type":"-o 1"
            },
            "Output":"-s _outputfile_",
            "Output_format":"bam",
            "Special":"stage1 map1 map2 map3 map4",
            "Log":"> _log_ 2> _error_"
       }
    }
}
