{
    "name":"VarScan",
    "TmpOutput":"yes",
    "Parameters":{
        "default":{
            "Command": "java -jar /opt/varscan/VarScan.v2.4.3.jar mpileup2cns _inputfile_",
            "Options":{
                "Coverage":"--min-coverage 3",
                "VarFreq":"--min-var-freq 0.01",
                "HomoVarFreq":"--min-freq-for-hom 0.85",
                "PvalueThreshold":"--p-value 0.99",
                "StrandFilter":"--strand-filter 0",
                "QualityFilter":"--min-avg-qual 0",
                "Report":"--variants",
                "OutputFormat":"--output-vcf 1",
                "Samples":"--vcf-sample-list _aux_"
            },
            "Output":"> _outputfile_",
            "Output_format":"vcf",
            "Log":"2> _error_"
       }
    }
}
