{
	"name":"Reseq Pipeline",
    "pipelines_path":"/home/jmrosa/git/python_projects/reseq/pipelines",
    "genomes":{
        "hg19":{
            "species":"human",
            "novoindex":"/home/jmrosa/genomes/hg19/hg19.chrM_fixed.fasta.novoalign.ndx",
            "fasta":"/home/jmrosa/genomes/hg19/hg19.chrM_fixed.fasta"
        }
    },
	"capture_techs":{
		"Haloplex": {
            "Panel_Research_Cancer":{
                "files":{
                    "covered":"/home/jmrosa/Documents/Projects/Haloplex/Panel_Research_Cancer/Agilent_files/00100-1358503561_Covered.bed",
                    "regions":"/home/jmrosa/Documents/Projects/Haloplex/Panel_Research_Cancer/Agilent_files/00100-1358503561_Regions.bed"
                },
                "analysis":{
                    "1":{
                        "name":"alignment",
                        "steps":"1:Tmap,2:Regroups"
                    },
                   "2":{
                        "name":"processing",
                        "steps":"1:RealignCreator,2:IndelRealigner,3:LeftAlignIndels,4:MergeSamFiles,5:SamtoolsFilter"
                    },
                   "3":{
                        "name":"variant_calling",
                        "steps":"1:SamtoolsResample,2:SamtoolsMpileup,3:VarScan,4:SplitVCF"
                    },
                   "4":{
                        "name":"annotation",
                        "steps":"1:EnsemblVEP"
                    }
                }
            }
		},
		"Ampliseq": {
            "Panel_Cancer_v2":{
                "files":{
                    "covered":"/home/jmrosa/Documents/Projects/Ampliseq/Panel_Cancer_v2/Ampliseq_files/CHP2.20131001.designed.bed",
                    "regions":"/home/jmrosa/Documents/Projects/Ampliseq/Panel_Cancer_v2/Ampliseq_files/CHP2.20131001.designed.bed"
                },
                "analysis":{
                    "1":{
                        "name":"alignment",
                        "steps":"1:Tmap,2:Regroups"
                    },
                   "2":{
                        "name":"processing",
                        "steps":"1:RealignCreator,2:IndelRealigner,3:LeftAlignIndels,4:MergeSamFiles,5:SamtoolsFilter"
                    },
                   "3":{
                        "name":"variant_calling",
                        "steps":"1:SamtoolsResample,2:SamtoolsMpileup,3:VarScan,4:SplitVCF"
                    },
                   "4":{
                        "name":"annotation",
                        "steps":"1:EnsemblVEP"
                    }
                }
            },
            "Exome":{
                "files":{
                    "covered":"/home/jmrosa/Documents/Projects/Exomes/Nimgenetics/AmpliSeqExome.20131001.designed.bed",
                    "regions":"/home/jmrosa/Documents/Projects/Exomes/Nimgenetics/AmpliSeqExome.20131001.designed.bed"
                },
                "analysis":{
                    "1":{
                        "name":"alignment",
                        "steps":"1:Tmap,2:Regroups"
                    },
                   "2":{
                        "name":"processing",
                        "steps":"1:RealignCreator,2:IndelRealigner,3:LeftAlignIndels,4:MergeSamFiles,5:SamtoolsFilter"
                    },
                   "3":{
                        "name":"variant_calling",
                        "steps":"1:SamtoolsResample,2:SamtoolsMpileup,3:VarScan,4:SplitVCF"
                    },
                   "4":{
                        "name":"annotation",
                        "steps":"1:EnsemblVEP"
                    }
                }
            }
		},
		"SureSelect": {
            "Exome_51_Mb":{
                "files":{
                    "covered":"/home/jmrosa/Documents/Projects/Exomes/SistemasGenomicos/exome51_intervalos.bed",
                    "regions":"/home/jmrosa/Documents/Projects/Exomes/SistemasGenomicos/exome51_intervalos.bed"
                },
                "analysis":{
                    "1":{
                        "name":"alignment",
                        "steps":"1:Novoalign,2:Regroups"
                    },
                   "2":{
                        "name":"processing",
                        "steps":"1:RealignCreator,2:IndelRealigner,3:LeftAlignIndels,4:MarkDuplicates,5:MergeSamFiles,6:SamtoolsFilter"
                    },
                   "3":{
                        "name":"variant_calling",
                        "steps":"1:SamtoolsResample,2:SamtoolsMpileup,3:VarScan,4:SplitVCF"
                    },
                   "4":{
                        "name":"annotation",
                        "steps":"1:EnsemblVEP"
                    }
                }
            },
            "Exome_50_Mb":{
                "files":{
                    "covered":"/home/jmrosa/Documents/Projects/IdelCastillo/exoma50_intervalos_captura.bed",
                    "regions":"/home/jmrosa/Documents/Projects/IdelCastillo/exoma50_intervalos_captura.bed"
                },
                "analysis":{
                    "1":{
                        "name":"alignment",
                        "steps":"1:Novoalign,2:Regroups"
                    },
                   "2":{
                        "name":"processing",
                        "steps":"1:RealignCreator,2:IndelRealigner,3:LeftAlignIndels,4:MarkDuplicates,5:MergeSamFiles,6:SamtoolsFilter"
                    },
                   "3":{
                        "name":"variant_calling",
                        "steps":"1:SamtoolsResample,2:SamtoolsMpileup,3:VarScan,4:SplitVCF"
                    },
                   "4":{
                        "name":"annotation",
                        "steps":"1:EnsemblVEP"
                    }
                }
            }
		},
		"Qiagen": {
            "BRCAs":{
                "files":{
                    "covered":"/home/jmrosa/Documents/Projects/Qiagen/brcas.bed",
                    "regions":"/home/jmrosa/Documents/Projects/Qiagen/brcas.bed"
                },
                "analysis":{
                    "1":{
                        "name":"alignment",
                        "steps":"1:Novoalign,2:Regroups"
                    },
                   "2":{
                        "name":"processing",
                        "steps":"1:RealignCreator,2:IndelRealigner,3:LeftAlignIndels,4:MergeSamFiles,5:SamtoolsFilter"
                    },
                   "3":{
                        "name":"variant_calling",
                        "steps":"1:SamtoolsResample,2:SamtoolsMpileup,3:VarScan,4:SplitVCF"
                    },
                   "4":{
                        "name":"annotation",
                        "steps":"1:EnsemblVEP"
                    }
                }
		},
		"Trusight": {
            "Tumour15_A":{
                "files":{
                    "covered":"/home/jmrosa/Documents/Projects/Qiagen/brcas.bed",
                    "regions":"/home/jmrosa/Documents/Projects/Qiagen/brcas.bed"
                },
                "analysis":{
                    "1":{
                        "name":"alignment",
                        "steps":"1:Novoalign,2:Regroups"
                    },
                   "2":{
                        "name":"processing",
                        "steps":"1:RealignCreator,2:IndelRealigner,3:LeftAlignIndels,4:MergeSamFiles,5:SamtoolsFilter"
                    },
                   "3":{
                        "name":"variant_calling",
                        "steps":"1:SamtoolsResample,2:SamtoolsMpileup,3:VarScan,4:SplitVCF"
                    },
                   "4":{
                        "name":"annotation",
                        "steps":"1:EnsemblVEP"
                    }
                }
            },
            "Tumour15_B":{
                "files":{
                    "covered":"/home/jmrosa/Documents/Projects/Qiagen/brcas.bed",
                    "regions":"/home/jmrosa/Documents/Projects/Qiagen/brcas.bed"
                },
                "analysis":{
                    "1":{
                        "name":"alignment",
                        "steps":"1:Novoalign,2:Regroups"
                    },
                   "2":{
                        "name":"processing",
                        "steps":"1:RealignCreator,2:IndelRealigner,3:LeftAlignIndels,4:MergeSamFiles,5:SamtoolsFilter"
                    },
                   "3":{
                        "name":"variant_calling",
                        "steps":"1:SamtoolsResample,2:SamtoolsMpileup,3:VarScan,4:SplitVCF"
                    },
                   "4":{
                        "name":"annotation",
                        "steps":"1:EnsemblVEP"
                    }
                }
            }
		}
    },
    "Phases": {
        "alignment":{
            "previous":"None",
            "next":"processing"
       },
        "processing":{
            "previous":"alignment",
            "next": "variant_calling"
       },
        "variant_calling":{
            "previous":"processing",
            "next":"annotation"
        },
        "annotation":{
            "previous":"variant_calling",
            "next":"None"
        }
    }
}
