{
    "name":"SamtoolsMpileup",
    "TmpOutput":"yes",
    "Merge":"yes",
    "Parameters":{
        "default":{
            "Command": "samtools mpileup -f _fasta_",
            "Options":{
                "Input":"_inputfile_",
                "Anomalous":"-A",
                "PerSampleDepth":"-D",
                "PerSampleSB":"-S",
                "Regions":"-l _regions_",
                "Sensitivity":"-p",
                "MaxDepth":"-d 1000",
                "Thresholds":"-m 1 -F 0.001"
            },
            "Output":"> _outputfile_",
            "Output_format":"pileup",
            "Log":"2> _error_"
       }
    }
}
